﻿{
  "msgType":"gameEnd",
  "data":{
    "results":[
      {
        "car":{
          "name":"CHIHUO",
          "color":"red"
        },
        "result":{
          "laps":3,
          "ticks":3089,
          "millis":51484
        }
      }
    ],
    "bestLaps":[
      {
        "car":{
          "name":"CHIHUO",
          "color":"red"
        },
        "result":{
          "lap":0,
          "ticks":764,
          "millis":12734
        }
      }
    ]
  },
  "gameId":"9e09ef77-f92b-4512-95b3-e8a2ddd6da13"
}